module entgo.io/bug

go 1.18

require (
	entgo.io/ent v0.11.3-0.20220830071904-3b1b75b9d7a9
	github.com/go-sql-driver/mysql v1.6.0
	github.com/lib/pq v1.10.6
	github.com/mattn/go-sqlite3 v1.14.15
)

require (
	entgo.io/contrib v0.3.3-0.20220909110541-462c4e569873
	github.com/99designs/gqlgen v0.17.21-0.20220919132849-ea9590a44419
	github.com/hashicorp/go-multierror v1.1.1
	github.com/vektah/gqlparser/v2 v2.5.1
	github.com/vmihailenco/msgpack/v5 v5.0.0-beta.9
	golang.org/x/sync v0.0.0-20220722155255-886fb9371eb4
)

require (
	ariga.io/atlas v0.6.2-0.20220819114704-2060066abac7 // indirect
	github.com/agext/levenshtein v1.2.1 // indirect
	github.com/agnivade/levenshtein v1.1.1 // indirect
	github.com/apparentlymart/go-textseg/v13 v13.0.0 // indirect
	github.com/go-openapi/inflect v0.19.0 // indirect
	github.com/google/go-cmp v0.5.6 // indirect
	github.com/google/uuid v1.3.0 // indirect
	github.com/gorilla/websocket v1.5.0 // indirect
	github.com/hashicorp/errwrap v1.0.0 // indirect
	github.com/hashicorp/golang-lru v0.5.4 // indirect
	github.com/hashicorp/hcl/v2 v2.13.0 // indirect
	github.com/kr/pretty v0.2.1 // indirect
	github.com/mitchellh/go-wordwrap v0.0.0-20150314170334-ad45545899c7 // indirect
	github.com/mitchellh/mapstructure v1.5.0 // indirect
	github.com/vmihailenco/tagparser v0.1.2 // indirect
	github.com/zclconf/go-cty v1.8.0 // indirect
	golang.org/x/mod v0.6.0-dev.0.20220419223038-86c51ed26bb4 // indirect
	golang.org/x/sys v0.0.0-20220811171246-fbc7d0a398ab // indirect
	golang.org/x/text v0.3.7 // indirect
	golang.org/x/tools v0.1.13-0.20220819182638-587a15310bdd // indirect
	gopkg.in/yaml.v3 v3.0.1 // indirect
)
